Data visualization and transformation - Flights and pipes
…
Filter for all rows where the destination airport is RDU and the arrival delay is less than 0.

# add code here

Describe what the code is doing in words.

Add response here.

flights |>
  filter(
    dest %in% c("RDU", "GSO"),
    arr_delay < 0 | dep_delay < 0
  )

# A tibble: 6,203 × 19
    year month   day dep_time sched_dep_time dep_delay arr_time sched_arr_time
   <int> <int> <int>    <int>          <int>     <dbl>    <int>          <int>
 1  2013     1     1      800            810       -10      949            955
 2  2013     1     1      832            840        -8     1006           1030
 3  2013     1     1      851            851         0     1032           1036
 4  2013     1     1      917            920        -3     1052           1108
 5  2013     1     1     1024           1030        -6     1204           1215
 6  2013     1     1     1127           1129        -2     1303           1309
 7  2013     1     1     1157           1205        -8     1342           1345
 8  2013     1     1     1317           1325        -8     1454           1505
 9  2013     1     1     1449           1450        -1     1651           1640
10  2013     1     1     1505           1510        -5     1654           1655
# ℹ 6,193 more rows
# ℹ 11 more variables: arr_delay <dbl>, carrier <chr>, flight <int>,
#   tailnum <chr>, origin <chr>, dest <chr>, air_time <dbl>, distance <dbl>,
#   hour <dbl>, minute <dbl>, time_hour <dttm>
…
