Data visualization and transformation – Visualizing and summarizing relationships
…
duke_forest <- duke_forest |>
  mutate(
    year_built_cat = if_else(
      year_built >= 1970, 
      "1970 or later", 
      "1969 or earlier"
    )
   )

Year built

duke_forest |>
  select(contains("year_built"))

# A tibble: 98 × 2
   year_built year_built_cat 
        <dbl> <chr>          
 1       1972 1970 or later  
 2       1969 1969 or earlier
 3       1959 1969 or earlier
 4       1961 1969 or earlier
 5       2020 1970 or later  
 6       2014 1970 or later  
 7       1968 1969 or earlier
 8       1973 1970 or later  
 9       1972 1970 or later  
10       1964 1969 or earlier
# ℹ 88 more rows
…
