Data visualization and transformation - Grammar of data transformation
…
All tibbles are data frames, but not all data frames are tibbles!

Two main differences between a tibble and a data frame:

Printing

Stricter subsetting

Printing - tibbles

Display first 10 rows and all of the columns that fit on the screen will display, along with the type of each column.

flights

# A tibble: 336,776 × 19
    year month   day dep_time sched_dep_time dep_delay
   <int> <int> <int>    <int>          <int>     <dbl>
 1  2013     1     1      517            515         2
 2  2013     1     1      533            529         4
 3  2013     1     1      542            540         2
 4  2013     1     1      544            545        -1
 5  2013     1     1      554            600        -6
 6  2013     1     1      554            558        -4
 7  2013     1     1      555            600        -5
 8  2013     1     1      557            600        -3
 9  2013     1     1      557            600        -3
10  2013     1     1      558            600        -2
# ℹ 336,766 more rows
# ℹ 13 more variables: arr_time <int>,
#   sched_arr_time <int>, arr_delay <dbl>, carrier <chr>,
#   flight <int>, tailnum <chr>, origin <chr>, dest <chr>,
#   air_time <dbl>, distance <dbl>, hour <dbl>,
#   minute <dbl>, time_hour <dttm>
…
Filter for flights to RDU in flights:

1flights |>
2  filter(dest == "RDU")

1

Take the flights data frame, and then,

2

Filter for rows where dest is equal to RDU

# A tibble: 8,163 × 19
    year month   day dep_time sched_dep_time dep_delay
   <int> <int> <int>    <int>          <int>     <dbl>
 1  2013     1     1      800            810       -10
 2  2013     1     1      832            840        -8
 3  2013     1     1      851            851         0
 4  2013     1     1      917            920        -3
 5  2013     1     1     1024           1030        -6
 6  2013     1     1     1127           1129        -2
 7  2013     1     1     1157           1205        -8
 8  2013     1     1     1240           1235         5
 9  2013     1     1     1317           1325        -8
10  2013     1     1     1449           1450        -1
# ℹ 8,153 more rows
# ℹ 13 more variables: arr_time <int>,
#   sched_arr_time <int>, arr_delay <dbl>, carrier <chr>,
#   flight <int>, tailnum <chr>, origin <chr>, dest <chr>,
#   air_time <dbl>, distance <dbl>, hour <dbl>,
#   minute <dbl>, time_hour <dttm>
…
The pipe, in action

1flights

1

Take the flights data frame

# A tibble: 336,776 × 19
    year month   day dep_time sched_dep_time dep_delay
   <int> <int> <int>    <int>          <int>     <dbl>
 1  2013     1     1      517            515         2
 2  2013     1     1      533            529         4
 3  2013     1     1      542            540         2
 4  2013     1     1      544            545        -1
 5  2013     1     1      554            600        -6
 6  2013     1     1      554            558        -4
 7  2013     1     1      555            600        -5
 8  2013     1     1      557            600        -3
 9  2013     1     1      557            600        -3
10  2013     1     1      558            600        -2
# ℹ 336,766 more rows
# ℹ 13 more variables: arr_time <int>,
#   sched_arr_time <int>, arr_delay <dbl>, carrier <chr>,
#   flight <int>, tailnum <chr>, origin <chr>, dest <chr>,
#   air_time <dbl>, distance <dbl>, hour <dbl>,
#   minute <dbl>, time_hour <dttm>

The pipe, in action

1flights |>
2  filter(dest == "RDU")

1

Take the flights data frame,

2

and then filter for flights going to RDU

# A tibble: 8,163 × 19
    year month   day dep_time sched_dep_time dep_delay
   <int> <int> <int>    <int>          <int>     <dbl>
 1  2013     1     1      800            810       -10
 2  2013     1     1      832            840        -8
 3  2013     1     1      851            851         0
 4  2013     1     1      917            920        -3
 5  2013     1     1     1024           1030        -6
 6  2013     1     1     1127           1129        -2
 7  2013     1     1     1157           1205        -8
 8  2013     1     1     1240           1235         5
 9  2013     1     1     1317           1325        -8
10  2013     1     1     1449           1450        -1
# ℹ 8,153 more rows
# ℹ 13 more variables: arr_time <int>,
#   sched_arr_time <int>, arr_delay <dbl>, carrier <chr>,
#   flight <int>, tailnum <chr>, origin <chr>, dest <chr>,
#   air_time <dbl>, distance <dbl>, hour <dbl>,
#   minute <dbl>, time_hour <dttm>
…
1

Take the flights data frame,

2

and then filter for flights going to RDU,

3

and then group by carrier

# A tibble: 8,163 × 19
# Groups:   carrier [5]
    year month   day dep_time sched_dep_time dep_delay
   <int> <int> <int>    <int>          <int>     <dbl>
 1  2013     1     1      800            810       -10
 2  2013     1     1      832            840        -8
 3  2013     1     1      851            851         0
 4  2013     1     1      917            920        -3
 5  2013     1     1     1024           1030        -6
 6  2013     1     1     1127           1129        -2
 7  2013     1     1     1157           1205        -8
 8  2013     1     1     1240           1235         5
 9  2013     1     1     1317           1325        -8
10  2013     1     1     1449           1450        -1
# ℹ 8,153 more rows
# ℹ 13 more variables: arr_time <int>,
#   sched_arr_time <int>, arr_delay <dbl>, carrier <chr>,
#   flight <int>, tailnum <chr>, origin <chr>, dest <chr>,
#   air_time <dbl>, distance <dbl>, hour <dbl>,
#   minute <dbl>, time_hour <dttm>
…
